Mincen Liu - Example analysis
…
# Use lubridate to create a column called release_year that is a Date class
h_movies_uni1 = h_movies_uni %>% filter(str_length(release_date) == 4) %>% mutate(release_date = paste0("1-Jan-", release_date))
h_movies_uni2 = h_movies_uni %>% filter(str_length(release_date) != 4)

h_movies_uni <- rbind(h_movies_uni1, h_movies_uni2)
h_movies_uni <- h_movies_uni %>% mutate(release_year = year(dmy(release_date)))

# Remove columns that we do not want to use
h_movies_uni <- h_movies_uni %>% select(title, release_country, release_year, review_rating, filming_locations, plot)

# Keep US only and drop rows with missing values
h_movies_us <- h_movies_uni %>% filter(release_country == "USA") %>% drop_na()
h_movies_us

# A tibble: 1,326 × 6
   title                              release_co…¹ relea…² revie…³ filmi…⁴ plot 
   <chr>                              <chr>          <dbl>   <dbl> <chr>   <chr>
 1 Dark Medicine (2013)               USA             2013     2.8 Atlant… Dire…
 2 Return of the Killer Shrews (2012) USA             2012     2.7 Sanna … Dire…
 3 The Perfect House (2013)           USA             2013     4.3 Buffal… Dire…
 4 Slaughter Daughter (2012)          USA             2012     4.4 Jersey… Dire…
 5 Elder Island (2016)                USA             2016     3.2 Beaver… Dire…
 6 After the Dawn (2012)              USA             2012     3.6 Ham La… Dire…
 7 Fear Town, USA (2014)              USA             2014     5.5 New Yo… Dire…
 8 Dead Girls (2014)                  USA             2014     3.5 Chicag… Dire…
 9 Other Halves (2015)                USA             2016     3.5 San Fr… Dire…
10 Gas Light (2016)                   USA             2016     8.6 Shawne… Dire…
# … with 1,316 more rows, and abbreviated variable names ¹​release_country,
#   ²​release_year, ³​review_rating, ⁴​filming_locations
…
library(tidytext)
# Get the frequency of the words and sort in a decreasing manner
pop_words <- h_movies_us %>% unnest_tokens(output = word, input = plot, token = "words") %>% anti_join(stop_words) %>% count(word, sort = TRUE)

Joining, by = "word"

pop_words

# A tibble: 12,221 × 2
   word         n
   <chr>    <int>
 1 directed  1325
 2 michael    159
 3 friends    132
 4 house      131
 5 david      126
 6 family     125
 7 life       123
 8 james      115
 9 town       113
10 home       111
# … with 12,211 more rows

# Remove the word "directed" since nearly every plot starts with it and remove a few names,
# then only keep the top 25 most frequent words
pop_words_25 <- pop_words %>% filter(!(word %in% c("directed", "michael", "david", "james", "john", "film", "robert", "paul", "ryan", "mark", "adam", "scott", "jason"))) %>% slice_head(n = 25)
pop_words_25

# A tibble: 25 × 2
   word           n
   <chr>      <int>
 1 friends      132
 2 house        131
 3 family       125
 4 life         123
 5 town         113
 6 home         111
 7 night        103
 8 killer       101
 9 mysterious    95
10 horror        91
# … with 15 more rows
…
